<?xml version="1.0" encoding="UTF-8" standalone="no"?>
<svg
   xmlns:dc="http://purl.org/dc/elements/1.1/"
   xmlns:cc="http://creativecommons.org/ns#"
   xmlns:rdf="http://www.w3.org/1999/02/22-rdf-syntax-ns#"
   xmlns:svg="http://www.w3.org/2000/svg"
   xmlns="http://www.w3.org/2000/svg"
   xmlns:sodipodi="http://sodipodi.sourceforge.net/DTD/sodipodi-0.dtd"
   xmlns:inkscape="http://www.inkscape.org/namespaces/inkscape"
   viewBox="0 0 512 512"
   version="1.1"
   id="svg4"
   sodipodi:docname="icon-square.svg"
   inkscape:version="0.92.2 5c3e80d, 2017-08-06">
  <metadata
     id="metadata10">
    <rdf:RDF>
      <cc:Work
         rdf:about="">
        <dc:format>image/svg+xml</dc:format>
        <dc:type
           rdf:resource="http://purl.org/dc/dcmitype/StillImage" />
      </cc:Work>
    </rdf:RDF>
  </metadata>
  <defs
     id="defs8">
    <clipPath
       clipPathUnits="userSpaceOnUse"
       id="clipPath889">
      <rect
         style="fill:#000000;fill-opacity:1;stroke:none;stroke-width:1;stroke-miterlimit:4;stroke-dasharray:none;stroke-opacity:1"
         id="rect891"
         width="75.936081"
         height="85.907478"
         x="818.42218"
         y="281.12366" />
    </clipPath>
    <clipPath
       clipPathUnits="userSpaceOnUse"
       id="clipPath924">
      <rect
         style="fill:#000000;fill-opacity:1;stroke:none;stroke-width:1;stroke-miterlimit:4;stroke-dasharray:none;stroke-opacity:1"
         id="rect926"
         width="84.610168"
         height="118.23729"
         x="816.81354"
         y="251.66101" />
    </clipPath>
    <clipPath
       clipPathUnits="userSpaceOnUse"
       id="clipPath936">
      <rect
         style="fill:#000000;fill-opacity:1;stroke:none;stroke-width:1;stroke-miterlimit:4;stroke-dasharray:none;stroke-opacity:1"
         id="rect938"
         width="159.54247"
         height="92.043732"
         x="803.84857"
         y="392.34314" />
    </clipPath>
    <clipPath
       clipPathUnits="userSpaceOnUse"
       id="clipPath944">
      <rect
         style="fill:#000000;fill-opacity:1;stroke:none;stroke-width:1;stroke-miterlimit:4;stroke-dasharray:none;stroke-opacity:1"
         id="rect946"
         width="130.39528"
         height="95.111855"
         x="819.18921"
         y="344.78723" />
    </clipPath>
    <clipPath
       clipPathUnits="userSpaceOnUse"
       id="clipPath956">
      <rect
         style="fill:#000000;fill-opacity:1;stroke:none;stroke-width:1;stroke-miterlimit:4;stroke-dasharray:none;stroke-opacity:1"
         id="rect958"
         width="103.54919"
         height="105.85029"
         x="851.01898"
         y="381.70599" />
    </clipPath>
  </defs>
  <sodipodi:namedview
     pagecolor="#ffffff"
     bordercolor="#666666"
     borderopacity="1"
     objecttolerance="10"
     gridtolerance="10"
     guidetolerance="10"
     inkscape:pageopacity="0"
     inkscape:pageshadow="2"
     inkscape:window-width="1440"
     inkscape:window-height="807"
     id="namedview6"
     showgrid="false"
     inkscape:zoom="0.921875"
     inkscape:cx="119.9238"
     inkscape:cy="215.21515"
     inkscape:window-x="0"
     inkscape:window-y="1"
     inkscape:window-maximized="1"
     inkscape:current-layer="svg4"
     inkscape:measure-start="77.1873,253.289"
     inkscape:measure-end="118.315,211.892" />
  <path
     d="M 459.67965,258.64343 256.48494,461.83815 53.358245,258.71145 256.55295,55.516741 459.67965,258.64343 M 488.72691,229.59617 285.60022,26.469488 c -15.98619,-15.986194 -42.10832,-15.986199 -58.09451,-5e-6 L 24.310995,229.66419 c -15.986194,15.98619 -15.986199,42.10833 2e-6,58.09452 L 227.50571,490.95344 c 15.98618,15.98618 42.10832,15.98619 58.09451,0 L 488.79494,287.75871 c 15.91813,-16.05425 15.91816,-42.17635 -0.0679,-58.16254 z"
     id="path2"
     inkscape:connector-curvature="0"
     style="stroke-width:0.96203792" />
  <path
     style="stroke-width:0.85948938"
     inkscape:connector-curvature="0"
     id="path920"
     d="m 841.50973,179.16029 v 256.72948 l -256.64353,-10e-6 V 179.1603 l 256.64353,-1e-5 m 0,-36.7002 H 584.86621 c -20.198,0 -36.7002,16.5022 -36.7002,36.7002 v 256.72947 c 0,20.198 16.5022,36.70021 36.7002,36.7002 l 256.72948,10e-6 c 20.19799,0 36.7002,-16.5022 36.7002,-36.7002 V 179.16029 c -0.086,-20.198 -16.58816,-36.7002 -36.7861,-36.70026 z"
     clip-path="url(#clipPath924)"
     transform="matrix(0.79147405,0.79147405,-0.79147405,0.79147405,-68.389395,-696.56557)" />
  <path
     transform="matrix(0.79147405,0.79147405,-0.79147405,0.79147405,-275.28633,-652.24985)"
     clip-path="url(#clipPath924)"
     d="m 841.50973,179.16029 v 256.72948 l -256.64353,-10e-6 V 179.1603 l 256.64353,-1e-5 m 0,-36.7002 H 584.86621 c -20.198,0 -36.7002,16.5022 -36.7002,36.7002 v 256.72947 c 0,20.198 16.5022,36.70021 36.7002,36.7002 l 256.72948,10e-6 c 20.19799,0 36.7002,-16.5022 36.7002,-36.7002 V 179.16029 c -0.086,-20.198 -16.58816,-36.7002 -36.7861,-36.70026 z"
     id="path928"
     inkscape:connector-curvature="0"
     style="stroke-width:0.85948938" />
  <path
     transform="matrix(0.79147405,-0.79147405,-0.79147405,-0.79147405,-140.67785,1293.7545)"
     clip-path="url(#clipPath936)"
     d="M 889.40662,179.43672 V 436.1662 l -256.64353,-1e-5 V 179.43673 l 256.64353,-1e-5 m 0,-36.70021 -256.64352,1e-5 c -20.198,0 -36.70021,16.5022 -36.7002,36.7002 l -10e-6,256.72947 c 0,20.198 16.50221,36.70021 36.70021,36.7002 l 256.72948,10e-6 c 20.19799,0 36.7002,-16.5022 36.7002,-36.7002 V 179.43672 c -0.086,-20.198 -16.58816,-36.7002 -36.7861,-36.70026 z"
     id="path948"
     inkscape:connector-curvature="0"
     style="stroke-width:0.85948938" />
  <path
     transform="matrix(0.79147405,0.79147405,-0.79147405,0.79147405,-59.363689,-781.42214)"
     clip-path="url(#clipPath956)"
     d="M 889.40662,179.43672 V 436.1662 l -256.64353,-1e-5 V 179.43673 l 256.64353,-1e-5 m 0,-36.70021 -256.64352,1e-5 c -20.198,0 -36.70021,16.5022 -36.7002,36.7002 l -10e-6,256.72947 c 0,20.198 16.50221,36.70021 36.70021,36.7002 l 256.72948,10e-6 c 20.19799,0 36.7002,-16.5022 36.7002,-36.7002 V 179.43672 c -0.086,-20.198 -16.58816,-36.7002 -36.7861,-36.70026 z"
     id="path950"
     inkscape:connector-curvature="0"
     style="stroke-width:0.85948938" />
  <path
     style="stroke-width:0.96203792"
     inkscape:connector-curvature="0"
     id="path1000"
     d="M 459.67965,258.64343 256.48494,461.83815 53.358245,258.71145 256.55295,55.516741 459.67965,258.64343 M 488.72691,229.59617 285.60022,26.469488 c -15.98619,-15.986194 -42.10832,-15.986199 -58.09451,-5e-6 L 24.310995,229.66419 c -15.986194,15.98619 -15.986199,42.10833 2e-6,58.09452 L 227.50571,490.95344 c 15.98618,15.98618 42.10832,15.98619 58.09451,0 L 488.79494,287.75871 c 15.91813,-16.05425 15.91816,-42.17635 -0.0679,-58.16254 z" />
</svg>
